Proyecto 1
…
Diferencia de edad: Esta es la gráfica más tramposa de todas porque a
primera vista parece una campana perfecta porque las líneas roja y azul
están casi pegadas. Pero si miramos bien, la forma es demasiado
puntiaguda (lo que llamamos leptocúrtica). Esto significa que hay una
concentración excesiva de datos en el centro porque la inmensa mayoría
de las parejas se lleva menos de 5 años, por otro lado las ‘colas’
largas a los lados (las partes bajas y planas de la curva) nos indican
que existen valores extremos—parejas con 20 o 30 años de diferencia que
rompen la estructura de una distribución normal estándar, aunque el
promedio sea acertado aquí, la variabilidad es engañosa.

## # A tibble: 59 × 5
##    var                      dataset        n   n_na   pct_na
##    <chr>                    <chr>      <int>  <int>    <dbl>
##  1 articulotras1            violencia 363888 362306 99.6    
##  2 articulotras2            violencia 363888 362306 99.6    
##  3 articulotras3            violencia 363888 362306 99.6    
##  4 articulotras4            violencia 363888 362306 99.6    
##  5 articulocodpen1          violencia 363888 361613 99.4    
##  6 articulocodpen2          violencia 363888 361613 99.4    
##  7 articulocodpen3          violencia 363888 361613 99.4    
##  8 articulocodpen4          violencia 363888 361613 99.4    
##  9 tipo_discaq              violencia 363888 356195 97.9    
## 10 filter                   violencia 363888 333900 91.8    
## 11 agr_grupet               violencia 363888 327781 90.1    
## 12 articulovcm1             violencia 363888 324944 89.3    
## 13 articulovcm2             violencia 363888 324944 89.3    
## 14 articulovcm3             violencia 363888 324944 89.3    
## 15 articulovcm4             violencia 363888 324944 89.3    
## 16 inst_donde_denuncio      violencia 363888 318892 87.6    
## 17 numero_boleta            violencia 363888 290259 79.8    
## 18 agr_dedica               violencia 363888 288194 79.2    
## 19 articulovif1             violencia 363888 261940 72.0    
## 20 articulovif2             violencia 363888 261940 72.0    
## 21 articulovif3             violencia 363888 261940 72.0    
## 22 articulovif4             violencia 363888 261940 72.0    
## 23 organismo_jurisdiccional violencia 363888 260643 71.6    
## 24 conducente               violencia 363888 260643 71.6    
## 25 organismo_remite         violencia 363888 260643 71.6    
## 26 vic_ocup                 violencia 363888 242377 66.6    
## 27 tipo_medida              violencia 363888 206085 56.6    
## 28 medidas_seguridad        violencia 363888 161992 44.5    
## 29 ley_aplicable            violencia 363888 160694 44.2    
## 30 vic_dedica               violencia 363888 122770 33.7    
## 31 agr_ocup                 violencia 363888  76353 21.0    
## 32 total_hijos_clean        violencia 363888  70366 19.3    
## 33 agr_gurpet               violencia 363888  36107  9.92   
## 34 agresores_otros_total    violencia 363888  36107  9.92   
## 35 agr_otros_hom            violencia 363888  36107  9.92   
## 36 agr_otras_muj            violencia 363888  36107  9.92   
## 37 agr_otros_n_os           violencia 363888  36107  9.92   
## 38 agr_otras_n_as           violencia 363888  36107  9.92   
## 39 mes_nombre               violencia 363888   4013  1.10   
## 40 total_hijos              violencia 363888   1694  0.466  
## 41 num_hij_hom              violencia 363888   1694  0.466  
## 42 num_hij_muj              violencia 363888   1694  0.466  
## 43 vic_est_civ              violencia 363888   1694  0.466  
## 44 vic_alfab                violencia 363888    689  0.189  
## 45 vic_escolaridad          violencia 363888    689  0.189  
## 46 vic_trabaja              violencia 363888    689  0.189  
## 47 agr_est_civ              violencia 363888     26  0.00715
## 48 GETHOM                   divorcios  71576  66419 92.8    
## 49 GETMUJ                   divorcios  71576  66419 92.8    
## 50 OCUHOM                   divorcios  71576  66419 92.8    
## # ℹ 9 more rows
…
